C:\Users\Andrea\Documents\NetBeansProjects\Calculadora\src\main\java\com\mycompany\calculadora\JAXRSConfiguration.java
C:\Users\Andrea\Documents\NetBeansProjects\Calculadora\src\main\java\model\Calculador.java
C:\Users\Andrea\Documents\NetBeansProjects\Calculadora\src\main\java\cl\controller\CalculadoraController.java
C:\Users\Andrea\Documents\NetBeansProjects\Calculadora\src\main\java\com\mycompany\calculadora\resources\JavaEE8Resource.java
